# Rime user dictionary
#@/db_name	pinyin_simp.userdb
#@/db_type	userdb
#@/rime_version	1.3.2
#@/tick	1
#@/user_id	rime-weasel
lai 	来	c=0 d=0.0995012 t=1
ni hao 	你好	c=1 d=1 t=1
peng 	朋	c=0 d=0.0995012 t=1
you 	有	c=0 d=0.0995012 t=1
you peng zi yuan fang lai 	有朋自远方来	c=1 d=1 t=1
yuan fang 	远方	c=0 d=0.0995012 t=1
zi 	自	c=0 d=0.0995012 t=1
